{
  "kind": "statisticalOperations#instances",
  "limit": 2,
  "offset": 2,
  "total": 5,
  "firstLink": "http://localhost:9001/internal/v1.0/operations/operation1/instances?limit=2&offset=0",
  "previousLink": "http://localhost:9001/internal/v1.0/operations/operation1/instances?limit=2&offset=0",
  "nextLink": "http://localhost:9001/internal/v1.0/operations/operation1/instances?limit=2&offset=4",
  "lastLink": "http://localhost:9001/internal/v1.0/operations/operation1/instances?limit=2&offset=4",
  "items": [
    {
      "id": "instance3",
      "kind": "statisticalOperations#instance",
      "selfLink": "http://localhost:9001/internal/v1.0/operations/operation1/instances/instance3",
      "title": {
        "texts": [
          {
            "locale": "en",
            "label": "Title instance instance3"
          },
          {
            "locale": "es",
            "label": "Título instance instance3"
          }
        ]
      }
    },
    {
      "id": "instance4",
      "kind": "statisticalOperations#instance",
      "selfLink": "http://localhost:9001/internal/v1.0/operations/operation1/instances/instance4",
      "title": {
        "texts": [
          {
            "locale": "es",
            "label": "Título instance instance4"
          },
          {
            "locale": "en",
            "label": "Title instance instance4"
          }
        ]
      }
    }
  ]
}